(Block-name: Header)
(Block-expand: 0)
(Block-enable: 1)
%
(Header)
(Generated by gcodetools from Inkscape.)
M3 S9000
(Header end.)
G21 (All units in mm)

G00 Z3.000000
(Block-name: r8)
(Block-expand: 0)
(Block-enable: 1)
G00 X18.113623 Y21.825334

G01 Z-0.350000 F50.0(Penetrate)
G01 X18.113623 Y18.825517 Z-0.350000 F80.000000
G01 X18.873266 Y18.825517 Z-0.350000
G01 X18.873266 Y12.172693 Z-0.350000
G01 X16.160770 Y12.181996 Z-0.350000
G01 X16.160770 Y12.932337 Z-0.350000
G01 X13.615189 Y12.932867 Z-0.350000
G01 X13.615189 Y10.403822 Z-0.350000
G01 X16.160770 Y10.403822 Z-0.350000
G01 X16.160770 Y11.152614 Z-0.350000
G01 X19.894393 Y11.152614 Z-0.350000
G01 X19.894393 Y18.825530 Z-0.350000
G01 X20.654036 Y18.825530 Z-0.350000
G01 X20.654036 Y21.825334 Z-0.350000
G01 X18.113623 Y21.825334 Z-0.350000
G00 Z3.000000
(Block-name: r7)
(Block-expand: 0)
(Block-enable: 1)
G00 Z3.000000
G00 X15.593880 Y21.825334

G01 Z-0.350000 F50.0(Penetrate)
G01 X15.593880 Y18.825517 Z-0.350000 F80.000000
G01 X16.333887 Y18.825517 Z-0.350000
G01 X16.333887 Y13.952946 Z-0.350000
G01 X12.593546 Y13.952946 Z-0.350000
G01 X12.593546 Y10.382105 Z-0.350000
G01 X12.084534 Y10.382105 Z-0.350000
G01 X12.084534 Y6.822632 Z-0.350000
G01 X14.124202 Y6.822632 Z-0.350000
G01 X14.124202 Y10.403809 Z-0.350000
G01 X13.615189 Y10.403809 Z-0.350000
G01 X13.615189 Y12.931820 Z-0.350000
G01 X17.353463 Y12.931820 Z-0.350000
G01 X17.353463 Y18.825517 Z-0.350000
G01 X18.113623 Y18.825517 Z-0.350000
G01 X18.113623 Y21.825334 Z-0.350000
G01 X15.593880 Y21.825334 Z-0.350000
G00 Z3.000000
(Block-name: r6)
(Block-expand: 0)
(Block-enable: 1)
G00 Z3.000000
G00 X13.033830 Y21.825334

G01 Z-0.350000 F50.0(Penetrate)
G01 X13.033830 Y18.825517 Z-0.350000 F80.000000
G01 X13.792956 Y18.825517 Z-0.350000
G01 X13.792956 Y14.972522 Z-0.350000
G01 X11.573970 Y14.972522 Z-0.350000
G01 X11.573970 Y11.132963 Z-0.350000
G01 X12.593546 Y11.132963 Z-0.350000
G01 X12.593546 Y13.952946 Z-0.350000
G01 X14.814600 Y13.952946 Z-0.350000
G01 X14.814600 Y18.825517 Z-0.350000
G01 X15.593880 Y18.825517 Z-0.350000
G01 X15.593880 Y21.825334 Z-0.350000
G01 X13.033830 Y21.825334 Z-0.350000
G00 Z3.000000
(Block-name: r5)
(Block-expand: 0)
(Block-enable: 1)
G00 Z3.000000
G00 X10.493933 Y21.825334

G01 Z-0.350000 F50.0(Penetrate)
G01 X10.493933 Y18.825517 Z-0.350000 F80.000000
G01 X11.254093 Y18.825517 Z-0.350000
G01 X11.254093 Y15.992098 Z-0.350000
G01 X10.554911 Y15.992098 Z-0.350000
G01 X10.554911 Y10.382105 Z-0.350000
G01 X10.044348 Y10.382105 Z-0.350000
G01 X10.044348 Y6.822632 Z-0.350000
G01 X12.084534 Y6.822632 Z-0.350000
G01 X12.084534 Y10.382105 Z-0.350000
G01 X11.573970 Y10.382105 Z-0.350000
G01 X11.573970 Y14.972522 Z-0.350000
G01 X12.273669 Y14.972522 Z-0.350000
G01 X12.273669 Y18.825517 Z-0.350000
G01 X13.033830 Y18.825517 Z-0.350000
G01 X13.033830 Y21.825334 Z-0.350000
G01 X10.493933 Y21.825334 Z-0.350000
G00 Z3.000000
(Block-name: r4)
(Block-expand: 0)
(Block-enable: 1)
G00 Z3.000000
G00 X7.954036 Y21.825334

G01 Z-0.350000 F50.0(Penetrate)
G01 X7.954036 Y18.825517 Z-0.350000 F80.000000
G01 X8.712647 Y18.825517 Z-0.350000
G01 X8.712647 Y13.952946 Z-0.350000
G01 X9.535335 Y13.952946 Z-0.350000
G01 X9.535335 Y11.132963 Z-0.350000
G01 X10.554911 Y11.132963 Z-0.350000
G01 X10.554911 Y14.972522 Z-0.350000
G01 X9.734290 Y14.972522 Z-0.350000
G01 X9.734290 Y18.825517 Z-0.350000
G01 X10.493933 Y18.825517 Z-0.350000
G01 X10.493933 Y21.825334 Z-0.350000
G01 X7.954036 Y21.825334 Z-0.350000
G00 Z3.000000
(Block-name: r3)
(Block-expand: 0)
(Block-enable: 1)
G00 Z3.000000
G00 X5.413623 Y21.825334

G01 Z-0.350000 F50.0(Penetrate)
G01 X5.413623 Y18.825517 Z-0.350000 F80.000000
G01 X6.173783 Y18.825517 Z-0.350000
G01 X6.173783 Y12.921484 Z-0.350000
G01 X8.513692 Y12.921484 Z-0.350000
G01 X8.513692 Y10.382105 Z-0.350000
G01 X8.004679 Y10.382105 Z-0.350000
G01 X8.004679 Y6.822632 Z-0.350000
G01 X10.044348 Y6.822632 Z-0.350000
G01 X10.044348 Y10.382105 Z-0.350000
G01 X9.535335 Y10.382105 Z-0.350000
G01 X9.535335 Y13.952946 Z-0.350000
G01 X7.193359 Y13.952946 Z-0.350000
G01 X7.193359 Y18.825517 Z-0.350000
G01 X7.954036 Y18.825517 Z-0.350000
G01 X7.954036 Y21.825334 Z-0.350000
G01 X5.413623 Y21.825334 Z-0.350000
G00 Z3.000000
(Block-name: r2)
(Block-expand: 0)
(Block-enable: 1)
G00 Z3.000000
G00 X2.873726 Y21.825334

G01 Z-0.350000 F50.0(Penetrate)
G01 X2.873726 Y18.825517 Z-0.350000 F80.000000
G01 X3.634920 Y18.825517 Z-0.350000
G01 X3.634920 Y11.152600 Z-0.350000
G01 X5.965011 Y11.152600 Z-0.350000
G01 X5.965011 Y10.382621 Z-0.350000
G01 X8.511108 Y10.382621 Z-0.350000
G01 X8.511108 Y12.922001 Z-0.350000
G01 X5.965011 Y12.922001 Z-0.350000
G01 X5.965011 Y12.171660 Z-0.350000
G01 X4.654496 Y12.171660 Z-0.350000
G01 X4.654496 Y18.825517 Z-0.350000
G01 X5.413623 Y18.825517 Z-0.350000
G01 X5.413623 Y21.825334 Z-0.350000
G01 X2.873726 Y21.825334 Z-0.350000
G00 Z3.000000
(Block-name: r1)
(Block-expand: 0)
(Block-enable: 1)
G00 Z3.000000
G00 X0.333830 Y21.825334

G01 Z-0.350000 F50.0(Penetrate)
G01 X0.333830 Y18.825517 Z-0.350000 F80.000000
G01 X1.093990 Y18.825517 Z-0.350000
G01 X1.093990 Y8.613220 Z-0.350000
G01 X5.965011 Y8.613220 Z-0.350000
G01 X5.965011 Y6.822632 Z-0.350000
G01 X8.004679 Y6.822632 Z-0.350000
G01 X8.004679 Y10.382105 Z-0.350000
G01 X5.965011 Y10.382105 Z-0.350000
G01 X5.965011 Y9.632796 Z-0.350000
G01 X2.113049 Y9.632796 Z-0.350000
G01 X2.113049 Y18.825517 Z-0.350000
G01 X2.873726 Y18.825517 Z-0.350000
G01 X2.873726 Y21.825334 Z-0.350000
G01 X0.333830 Y21.825334 Z-0.350000
G00 Z3.000000
(Block-name: p1 mark [drill:-0.4])
(Block-expand: 0)
(Block-enable: 1)
g0 x1.6039 y19.955
g1 z-0.4 f50
g0 z3
(Block-name: p2 mark [drill:-0.4])
(Block-expand: 0)
(Block-enable: 1)
g0 x4.1438 y19.955
g1 z-0.4 f50
g0 z3
(Block-name: p3 mark [drill:-0.4])
(Block-expand: 0)
(Block-enable: 1)
g0 x6.6838 y19.955
g1 z-0.4 f50
g0 z3
(Block-name: p4 mark [drill:-0.4])
(Block-expand: 0)
(Block-enable: 1)
g0 x9.2239 y19.955
g1 z-0.4 f50
g0 z3
(Block-name: p5 mark [drill:-0.4])
(Block-expand: 0)
(Block-enable: 1)
g0 x11.7639 y19.955
g1 z-0.4 f50
g0 z3
(Block-name: p6 mark [drill:-0.4])
(Block-expand: 0)
(Block-enable: 1)
g0 x14.3039 y19.955
g1 z-0.4 f50
g0 z3
(Block-name: p7 mark [drill:-0.4])
(Block-expand: 0)
(Block-enable: 1)
g0 x16.8439 y19.955
g1 z-0.4 f50
g0 z3
(Block-name: p8 mark [drill:-0.4])
(Block-expand: 0)
(Block-enable: 1)
g0 x19.3839 y19.955
g1 z-0.4 f50
g0 z3
(Block-name: eth8 mark [drill:-0.4])
(Block-expand: 0)
(Block-enable: 1)
g0 x14.1245 y11.6624
g1 z-0.4 f50
g0 z3
(Block-name: eth6 mark [drill:-0.4])
(Block-expand: 0)
(Block-enable: 1)
g0 x12.0845 y11.6624
g1 z-0.4 f50
g0 z3
(Block-name: eth4 mark [drill:-0.4])
(Block-expand: 0)
(Block-enable: 1)
g0 x10.0445 y11.6624
g1 z-0.4 f50
g0 z3
(Block-name: eth2 mark [drill:-0.4])
(Block-expand: 0)
(Block-enable: 1)
g0 x8.0045 y11.6624
g1 z-0.4 f50
g0 z3
(Block-name: left mark[drill:-0.4])
(Block-expand: 0)
(Block-enable: 1)
g0 x2.9338 y6.8224
g1 z-1 f50
g0 z3
(Block-name: eth1 mark [drill:-0.4])
(Block-expand: 0)
(Block-enable: 1)
g0 x6.9845 y9.1224
g1 z-0.4 f50
g0 z3
(Block-name: eth3 mark [drill:-0.4])
(Block-expand: 0)
(Block-enable: 1)
g0 x9.0245 y9.1224
g1 z-0.4 f50
g0 z3
(Block-name: eth5 mark [drill:-0.4])
(Block-expand: 0)
(Block-enable: 1)
g0 x11.0645 y9.1224
g1 z-0.4 f50
g0 z3
(Block-name: eth7 mark [drill:-0.4])
(Block-expand: 0)
(Block-enable: 1)
g0 x13.1045 y9.1224
g1 z-0.4 f50
g0 z3
(Block-name: right mark [drill:-0.4])
(Block-expand: 0)
(Block-enable: 1)
g0 x17.9339 y6.8225
g1 z-1 f50
g0 z3
(Block-name: #####################  TOOL CHANGE from cone to 0.8 corn)
(Block-expand: 1)
(Block-enable: 1)
M6 T1 (Corn 0.8)
(Block-name: p1 [drill])
(Block-expand: 0)
(Block-enable: 1)
g0 x1.6039 y19.955
g1 z-0.8 f30
g0 z1
g1 z-1.6 f30
g0 z3
(Block-name: p2 [drill])
(Block-expand: 0)
(Block-enable: 1)
g0 x4.1438 y19.955
g1 z-0.8 f30
g0 z1
g1 z-1.6 f30
g0 z3
(Block-name: p3 [drill])
(Block-expand: 0)
(Block-enable: 1)
g0 x6.6838 y19.955
g1 z-0.8 f30
g0 z1
g1 z-1.6 f30
g0 z3
(Block-name: p4 [drill])
(Block-expand: 0)
(Block-enable: 1)
g0 x9.2239 y19.955
g1 z-0.8 f30
g0 z1
g1 z-1.6 f30
g0 z3
(Block-name: p5 [drill])
(Block-expand: 0)
(Block-enable: 1)
g0 x11.7639 y19.955
g1 z-0.8 f30
g0 z1
g1 z-1.6 f30
g0 z3
(Block-name: p6 [drill])
(Block-expand: 0)
(Block-enable: 1)
g0 x14.3039 y19.955
g1 z-0.8 f30
g0 z1
g1 z-1.6 f30
g0 z3
(Block-name: p7 [drill])
(Block-expand: 0)
(Block-enable: 1)
g0 x16.8439 y19.955
g1 z-0.8 f30
g0 z1
g1 z-1.6 f30
g0 z3
(Block-name: p8 [drill])
(Block-expand: 0)
(Block-enable: 1)
g0 x19.3839 y19.955
g1 z-0.8 f30
g0 z1
g1 z-1.6 f30
g0 z3
(Block-name: eth8 [drill])
(Block-expand: 0)
(Block-enable: 1)
g0 x14.1245 y11.6624
g1 z-0.8 f30
g0 z1
g1 z-1.6 f30
g0 z3
(Block-name: eth6 [drill])
(Block-expand: 0)
(Block-enable: 1)
g0 x12.0845 y11.6624
g1 z-0.8 f30
g0 z1
g1 z-1.6 f30
g0 z3
(Block-name: eth4 [drill])
(Block-expand: 0)
(Block-enable: 1)
g0 x10.0445 y11.6624
g1 z-0.8 f30
g0 z1
g1 z-1.6 f30
g0 z3
(Block-name: eth2[ drill])
(Block-expand: 0)
(Block-enable: 1)
g0 x8.0045 y11.6624
g1 z-0.8 f30
g0 z1
g1 z-1.6 f30
g0 z3
(Block-name: eth1 [drill])
(Block-expand: 0)
(Block-enable: 1)
g0 x6.9845 y9.1224
g1 z-0.8 f30
g0 z1
g1 z-1.6 f30
g0 z3
(Block-name: eth3 [drill])
(Block-expand: 0)
(Block-enable: 1)
g0 x9.0245 y9.1224
g1 z-0.8 f30
g0 z1
g1 z-1.6 f30
g0 z3
(Block-name: eth5 [drill])
(Block-expand: 0)
(Block-enable: 1)
g0 x11.0645 y9.1224
g1 z-0.8 f30
g0 z1
g1 z-1.6 f30
g0 z3
(Block-name: eth7 [drill])
(Block-expand: 0)
(Block-enable: 1)
g0 x13.1045 y9.1224
g1 z-0.8 f30
g0 z1
g1 z-1.6 f30
g0 z3
(Block-name: #####################  TOOL CHANGE from corn 0.8 to 2.0 corn)
(Block-expand: 1)
(Block-enable: 1)
M6 T7 (Corn 2.0)
(Block-name: left [drill])
(Block-expand: 0)
(Block-enable: 1)
g0 x2.9338 y6.8224
g1 z-0.8 f50
g0 z3
g1 z-1.6 f50
g0 z3
(Block-name: right [drill])
(Block-expand: 0)
(Block-enable: 1)
g0 x17.9339 y6.8225
g1 z-0.8 f50
g0 z3
g1 z-1.6 f50
g0 z3
(Block-name: #####################  TOOL CHANGE from corn 2.0 to 1.6 corn [])
(Block-expand: 1)
(Block-enable: 1)
M6 T5 (Corn 1.6)
(Block-name: cut-out [out,conventional,ccw,cut])
(Block-expand: 0)
(Block-enable: 1)
(pass -0.200000 slow - take off cooper layer)
g0 z3
g0 x0.179083 y22.620917
g1 z0 f50
(entered)
g3 x-0.620917 y21.820917 i0 j-0.8 z-0.2 f40
g1 x-0.620917 y0 z-0.2
g3 x0.179083 y-0.8 i0.8 j0 z-0.2
g1 x21 y-0.8 z-0.2
g3 x21.8 y0 i0 j0.8 z-0.2
g1 x21.8 y21.820917 z-0.2
g3 x21 y22.620917 i-0.8 j0 z-0.2
g1 x0.179083 y22.620917 z-0.2
(pass -0.800000)
g0 x0.179083 y22.620917
g1 z-0.8 f50
(entered)
g3 x-0.620917 y21.820917 i0 j-0.8 z-0.8 f80
g1 x-0.620917 y0 z-0.8
g3 x0.179083 y-0.8 i0.8 j0 z-0.8
g1 x21 y-0.8 z-0.8
g3 x21.8 y0 i0 j0.8 z-0.8
g1 x21.8 y21.820917 z-0.8
g3 x21 y22.620917 i-0.8 j0 z-0.8
g1 x0.179083 y22.620917 z-0.8
(pass -1.600000)
g0 x0.179083 y22.620917
g1 z-1.6 f50
(entered)
g3 x-0.620917 y21.820917 i0 j-0.8 z-1.6 f80
g1 x-0.620917 y0 z-1.6
g3 x0.179083 y-0.8 i0.8 j0 z-1.6
g1 x21 y-0.8 z-1.6
g3 x21.8 y0 i0 j0.8 z-1.6
g1 x21.8 y21.820917 z-1.6
g3 x21 y22.620917 i-0.8 j0 z-1.6
g1 x2.179083 y22.620917 z-1.6
( Final cut-off 2mm, make slower )
g1 x0.179083 y22.620917 z-1.6 f30
(exiting)
g0 z3
(Block-name: Footer)
(Block-expand: 0)
(Block-enable: 1)
(Footer)
M5
G00 X0.0000 Y0.0000
M2
(end)

